<svg width="127" height="134" viewBox="0 0 127 134" fill="none" xmlns="http://www.w3.org/2000/svg">
<path d="M32.5425 127.067C22.4585 121.369 2.0273 106.816 0.975055 94.1914C-0.151429 80.6765 20.9117 89.3464 29.4614 96.2447C21.8266 86.3642 4.38593 60.3672 9.52457 49.4806C15.4435 45.5355 32.9371 48.5601 42.4073 63.2883C40.8728 59.1241 36.7515 50.0395 40.4344 43.7274C42.4073 40.3459 46.3533 45.5355 48.9839 49.4806C48.7647 38.9604 51.746 14.764 65.4253 2.13974C79.1045 -10.4845 87.7855 39.8371 90.4162 66.5759C96.5543 64.3842 110.803 60.6583 118.695 63.2883C126.587 65.9184 107.077 91.123 96.3351 103.397C102.473 101.862 116.722 99.7145 124.614 103.397C134.479 107.999 99.6233 129.697 82.5243 132.327C65.4253 134.957 39.9411 131.248 32.5425 127.067Z" fill="#90E7FF"/>
<circle cx="46.1852" cy="87.249" r="9.05158" transform="rotate(10.0874 46.1852 87.249)" fill="white"/>
<circle cx="46.8369" cy="90.0462" r="6.41154" transform="rotate(10.0874 46.8369 90.0462)" fill="black"/>
<circle cx="78.1187" cy="92.9299" r="9.05158" transform="rotate(77.512 78.1187 92.9299)" fill="white"/>
<circle cx="76.6106" cy="95.429" r="6.41154" transform="rotate(77.512 76.6106 95.429)" fill="black"/>
<path fill-rule="evenodd" clip-rule="evenodd" d="M66.4704 106.507C67.2812 107.269 67.3208 108.544 66.5589 109.355C66.0311 109.916 65.3764 110.324 64.9541 110.587C64.9212 110.608 64.8897 110.627 64.8598 110.646C64.3614 110.959 64.0814 111.151 63.8731 111.372C63.1961 112.093 62.2952 112.435 61.6593 112.61C60.9735 112.799 60.2813 112.877 59.7466 112.894C59.4937 112.902 59.3513 112.91 59.2021 112.92C59.0884 112.926 58.9707 112.934 58.7972 112.941C58.5053 112.953 58.0874 112.961 57.6302 112.86C56.6456 112.643 55.9438 112.017 55.3239 111.434L52.7023 108.971C51.8915 108.209 51.8519 106.934 52.6138 106.123C53.3757 105.312 54.6507 105.273 55.4614 106.035L58.083 108.498C58.3228 108.724 58.4687 108.848 58.5592 108.918C58.5794 108.917 58.6027 108.916 58.6295 108.915C58.7096 108.912 58.7928 108.907 58.9024 108.901C58.941 108.899 58.983 108.896 59.0292 108.894C59.1962 108.884 59.3941 108.874 59.6214 108.867C59.902 108.858 60.2689 108.814 60.5891 108.725C60.7457 108.682 60.8584 108.638 60.9297 108.601C60.9469 108.593 60.9594 108.586 60.9678 108.581C61.5632 107.957 62.2437 107.531 62.6984 107.246L62.7202 107.232C63.267 106.889 63.4833 106.744 63.6228 106.596C64.3847 105.785 65.6596 105.745 66.4704 106.507Z" fill="black"/>
</svg>
