<svg width="19" height="19" viewBox="0 0 19 19" fill="none" xmlns="http://www.w3.org/2000/svg">
<path fill-rule="evenodd" clip-rule="evenodd" d="M8.44271 9.5L0 1.05728L1.05728 0L9.5 8.44271L17.9427 0L19 1.05728L10.5573 9.5L19 17.9427L17.9427 19L9.5 10.5573L1.05728 19L0 17.9427L8.44271 9.5Z" fill="#FF6900"/>
</svg>
